TuringMachine/DVEfiles/dve_gui.log
Chronologic VCS simulator copyright 1991-2022
Contains Synopsys proprietary information.
Compiler version T-2022.06_Full64; Runtime version T-2022.06_Full64;  May  3 18:48 2023
VCD+ Writer T-2022.06_Full64 Copyright (c) 1991-2022 by Synopsys Inc.
The file '/afs/andrew.cmu.edu/usr1/zhiyingm/private/18224/tiny-tapeout/TuringMachine/inter.vpd' was opened successfully.
                   0 input_data =  x, next = 0, done = 0, display = xxxxxxxxxxx, Compute_done = x

                   5 input_data =  3, next = 0, done = 0, display = 00000000000, Compute_done = x

                  35 input_data =  3, next = 1, done = 0, display = 00000000000, Compute_done = 1

                  55 input_data =  3, next = 1, done = 0, display = 00000000000, Compute_done = x

                  95 input_data =  3, next = 0, done = 0, display = 00000000000, Compute_done = x

                 115 input_data =  1, next = 0, done = 0, display = 00000000000, Compute_done = x

                 145 input_data =  1, next = 1, done = 0, display = 00000000000, Compute_done = 1

                 155 input_data =  1, next = 1, done = 0, display = 00000000000, Compute_done = x

                 165 input_data =  1, next = 0, done = 0, display = 00000000000, Compute_done = x

                 185 input_data =  0, next = 0, done = 0, display = 00000000000, Compute_done = x

                 215 input_data =  0, next = 1, done = 0, display = 00000000000, Compute_done = 1

                 225 input_data =  0, next = 1, done = 0, display = 00000000000, Compute_done = x

                 235 input_data =  0, next = 0, done = 0, display = 00000000000, Compute_done = x

                 255 input_data =  2, next = 0, done = 0, display = 00000000000, Compute_done = x

                 285 input_data =  2, next = 1, done = 0, display = 00000000000, Compute_done = 1

                 295 input_data =  2, next = 1, done = 0, display = 00000000000, Compute_done = x

                 305 input_data =  2, next = 0, done = 0, display = 00000000000, Compute_done = x

                 325 input_data =  1, next = 0, done = 0, display = 00000000000, Compute_done = x

                 355 input_data =  1, next = 1, done = 0, display = 00000000000, Compute_done = 1

                 365 input_data =  1, next = 1, done = 0, display = 00000000000, Compute_done = x

                 375 input_data =  1, next = 0, done = 0, display = 00000000000, Compute_done = x

                 395 input_data =  0, next = 0, done = 0, display = 00000000000, Compute_done = x

                 425 input_data =  0, next = 1, done = 0, display = 00000000000, Compute_done = 1

                 435 input_data =  0, next = 1, done = 0, display = 00000000000, Compute_done = x

                 445 input_data =  0, next = 0, done = 0, display = 00000000000, Compute_done = x

                 465 input_data =  1, next = 0, done = 0, display = 00000000000, Compute_done = x

                 495 input_data =  1, next = 1, done = 0, display = 00000000000, Compute_done = 1

                 505 input_data =  1, next = 1, done = 0, display = 00000000000, Compute_done = x

                 515 input_data =  1, next = 0, done = 0, display = 00000000000, Compute_done = x

                 535 input_data =  0, next = 0, done = 0, display = 00000000000, Compute_done = x

                 565 input_data =  0, next = 1, done = 0, display = 00000000000, Compute_done = 1

                 575 input_data =  0, next = 1, done = 0, display = 00000000000, Compute_done = x

                 585 input_data =  0, next = 0, done = 0, display = 00000000000, Compute_done = x

                 605 input_data =  1, next = 0, done = 0, display = 00000000000, Compute_done = x

                 635 input_data =  1, next = 1, done = 0, display = 00000000000, Compute_done = 1

                 645 input_data =  1, next = 1, done = 0, display = 00000000000, Compute_done = x

                 655 input_data =  1, next = 0, done = 0, display = 00000000000, Compute_done = x

                 675 input_data =  3, next = 0, done = 0, display = 00000000000, Compute_done = x

                 705 input_data =  3, next = 1, done = 0, display = 00000000000, Compute_done = 1

                 715 input_data =  3, next = 1, done = 0, display = 00000000000, Compute_done = x

                 725 input_data =  3, next = 0, done = 0, display = 00000000000, Compute_done = x

                 745 input_data =  1, next = 0, done = 0, display = 00000000000, Compute_done = x

                 775 input_data =  1, next = 1, done = 0, display = 00000000000, Compute_done = 1

                 785 input_data =  1, next = 1, done = 0, display = 00000000000, Compute_done = x

                 795 input_data =  1, next = 0, done = 0, display = 00000000000, Compute_done = x

                 815 input_data =  0, next = 0, done = 0, display = 00000000000, Compute_done = x

                 845 input_data =  0, next = 1, done = 0, display = 00000000000, Compute_done = 1

                 855 input_data =  0, next = 1, done = 0, display = 00000000000, Compute_done = x

                 865 input_data =  0, next = 0, done = 0, display = 00000000000, Compute_done = x

                 885 input_data =  2, next = 0, done = 0, display = 00000000000, Compute_done = x

                 915 input_data =  2, next = 1, done = 0, display = 00000000000, Compute_done = 1

                 925 input_data =  2, next = 1, done = 0, display = 00000000000, Compute_done = x

                 935 input_data =  2, next = 0, done = 0, display = 00000000000, Compute_done = x

                 955 input_data =  0, next = 0, done = 0, display = 00000000000, Compute_done = x

                 985 input_data =  0, next = 1, done = 0, display = 00000000000, Compute_done = 1

                 995 input_data =  0, next = 1, done = 0, display = 00000000000, Compute_done = x

                1005 input_data =  0, next = 0, done = 0, display = 00000000000, Compute_done = x

                1025 input_data =  2, next = 0, done = 0, display = 00000000000, Compute_done = x

                1055 input_data =  2, next = 1, done = 0, display = 00000000000, Compute_done = 1

                1065 input_data =  2, next = 1, done = 0, display = 00000000000, Compute_done = x

                1075 input_data =  2, next = 0, done = 0, display = 00000000000, Compute_done = x

                1095 input_data =  3, next = 0, done = 0, display = 00000000000, Compute_done = x

                1125 input_data =  3, next = 1, done = 0, display = 00000000000, Compute_done = 1

                1135 input_data =  3, next = 1, done = 0, display = 00000000000, Compute_done = x

                1145 input_data =  3, next = 0, done = 0, display = 00000000000, Compute_done = x

                1165 input_data =  0, next = 0, done = 0, display = 00000000000, Compute_done = x

                1195 input_data =  0, next = 1, done = 0, display = 00000000000, Compute_done = 1

                1205 input_data =  0, next = 1, done = 0, display = 00000000000, Compute_done = x

                1215 input_data =  0, next = 0, done = 0, display = 00000000000, Compute_done = x

                1235 input_data =  2, next = 0, done = 0, display = 00000000000, Compute_done = x

                1265 input_data =  2, next = 1, done = 0, display = 00000000000, Compute_done = 1

                1275 input_data =  2, next = 1, done = 0, display = 00000000000, Compute_done = x

                1285 input_data =  2, next = 0, done = 0, display = 00000000000, Compute_done = x

                1305 input_data =  3, next = 0, done = 0, display = 00000000000, Compute_done = x

                1335 input_data =  3, next = 1, done = 0, display = 00000000000, Compute_done = 1

                1345 input_data =  3, next = 1, done = 0, display = 00000000000, Compute_done = x

                1355 input_data =  3, next = 0, done = 0, display = 00000000000, Compute_done = x

                1375 input_data =  1, next = 0, done = 0, display = 00000000000, Compute_done = x

                1405 input_data =  1, next = 1, done = 0, display = 00000000000, Compute_done = 1

                1415 input_data =  1, next = 1, done = 0, display = 00000000000, Compute_done = x

                1425 input_data =  1, next = 0, done = 0, display = 00000000000, Compute_done = x

                1475 input_data =  1, next = 1, done = 0, display = 00000000000, Compute_done = 1

                1485 input_data =  1, next = 1, done = 0, display = 00000000000, Compute_done = x

                1495 input_data =  1, next = 0, done = 0, display = 00000000000, Compute_done = x

                1545 input_data =  1, next = 1, done = 0, display = 00000000000, Compute_done = 1

                1555 input_data =  1, next = 1, done = 0, display = 00000000000, Compute_done = x

                1565 input_data =  1, next = 0, done = 0, display = 00000000000, Compute_done = x

                1615 input_data =  1, next = 1, done = 0, display = 00000000000, Compute_done = 1

                1625 input_data =  1, next = 1, done = 0, display = 00000000000, Compute_done = x

                1635 input_data =  1, next = 0, done = 0, display = 00000000000, Compute_done = x

                1685 input_data =  1, next = 1, done = 0, display = 00000000000, Compute_done = 1

                1695 input_data =  1, next = 1, done = 0, display = 00000000000, Compute_done = x

                1705 input_data =  1, next = 0, done = 0, display = 00000000000, Compute_done = x

                1755 input_data =  1, next = 1, done = 0, display = 00000000000, Compute_done = 1

                1765 input_data =  1, next = 1, done = 0, display = 00000000000, Compute_done = x

                1775 input_data =  1, next = 0, done = 0, display = 00000000000, Compute_done = x

                1825 input_data =  1, next = 1, done = 0, display = 00000000000, Compute_done = 1

                1835 input_data =  1, next = 1, done = 0, display = 00000000000, Compute_done = x

                1845 input_data =  1, next = 0, done = 0, display = 00000000000, Compute_done = x

                1895 input_data =  1, next = 1, done = 0, display = 00000000000, Compute_done = 1

                1905 input_data =  1, next = 1, done = 0, display = 00000000000, Compute_done = x

                1915 input_data =  1, next = 0, done = 0, display = 00000000000, Compute_done = x

                1965 input_data =  1, next = 1, done = 0, display = 00000000000, Compute_done = 1

                1975 input_data =  1, next = 1, done = 0, display = 00000000000, Compute_done = x

                1985 input_data =  1, next = 0, done = 0, display = 00000000000, Compute_done = x

                2005 input_data =  1, next = 0, done = 1, display = 00000000000, Compute_done = 1

                2015 input_data =  1, next = 0, done = 1, display = 00000000000, Compute_done = 0

                2025 input_data =  1, next = 0, done = 0, display = 00000000001, Compute_done = 0

                2065 input_data =  1, next = 1, done = 0, display = 00000000001, Compute_done = 0

                2085 input_data =  1, next = 0, done = 0, display = 00000000001, Compute_done = 0

                2115 input_data =  1, next = 0, done = 0, display = 00000000011, Compute_done = 0

                2135 input_data =  1, next = 1, done = 0, display = 00000000011, Compute_done = 0

                2155 input_data =  1, next = 0, done = 0, display = 00000000011, Compute_done = 0

                2185 input_data =  1, next = 0, done = 0, display = 00000000111, Compute_done = 0

                2205 input_data =  1, next = 1, done = 0, display = 00000000111, Compute_done = 0

                2225 input_data =  1, next = 0, done = 0, display = 00000000111, Compute_done = 0

                2255 input_data =  1, next = 0, done = 0, display = 00000001111, Compute_done = 0

                2275 input_data =  1, next = 1, done = 0, display = 00000001111, Compute_done = 0

                2295 input_data =  1, next = 0, done = 0, display = 00000001111, Compute_done = 0

                2325 input_data =  1, next = 0, done = 0, display = 00000011111, Compute_done = 0

error

                2345 input_data =  1, next = 1, done = 0, display = 00000011111, Compute_done = 0

                2365 input_data =  1, next = 0, done = 0, display = 00000011111, Compute_done = 0

                2395 input_data =  1, next = 0, done = 0, display = 00000111111, Compute_done = 0

                2415 input_data =  1, next = 1, done = 0, display = 00000111111, Compute_done = 0

                2435 input_data =  1, next = 0, done = 0, display = 00000111111, Compute_done = 0

                2465 input_data =  1, next = 0, done = 0, display = 00001111111, Compute_done = 0

                2485 input_data =  1, next = 1, done = 0, display = 00001111111, Compute_done = 0

                2505 input_data =  1, next = 0, done = 0, display = 00001111111, Compute_done = 0

                2535 input_data =  1, next = 0, done = 0, display = 00011111111, Compute_done = 0

                2555 input_data =  1, next = 1, done = 0, display = 00011111111, Compute_done = 0

                2575 input_data =  1, next = 0, done = 0, display = 00011111111, Compute_done = 0

                2605 input_data =  1, next = 0, done = 0, display = 00111111111, Compute_done = 0

error

                2625 input_data =  1, next = 1, done = 0, display = 00111111111, Compute_done = 0

                2645 input_data =  1, next = 0, done = 0, display = 00111111111, Compute_done = 0

                2655 input_data =  1, next = 0, done = 0, display = 00111111111, Compute_done = 1

                2665 input_data =  1, next = 0, done = 0, display = 00111111111, Compute_done = x

error

                2695 input_data =  1, next = 1, done = 0, display = 00111111111, Compute_done = x

error

                2715 input_data =  1, next = 0, done = 0, display = 00111111111, Compute_done = x

error

                2765 input_data =  1, next = 1, done = 0, display = 00111111111, Compute_done = x

                2785 input_data =  1, next = 0, done = 0, display = 00111111111, Compute_done = x

error

                2835 input_data =  1, next = 1, done = 0, display = 00111111111, Compute_done = x

                2855 input_data =  1, next = 0, done = 0, display = 00111111111, Compute_done = x

error

                2905 input_data =  1, next = 1, done = 0, display = 00111111111, Compute_done = x

                2925 input_data =  1, next = 0, done = 0, display = 00111111111, Compute_done = x

error

$finish called from file "TuringMachine_test.sv", line 495.
$finish at simulation time                 2976
Simulation complete, time is 2976.
0
           V C S   S i m u l a t i o n   R e p o r t 
Time: 2976
CPU Time:      0.360 seconds;       Data structure size:   0.0Mb
Wed May  3 18:58:03 2023

Warning-[DEBUG_DEP] Option will be deprecated
  The option '-debug' will be deprecated in a future release.  Please use 
  '-debug_acc+pp+f+dmptf -debug_region+cell+encrypt' instead.

                         Chronologic VCS (TM)
         Version T-2022.06_Full64 -- Wed May  3 18:58:04 2023

                    Copyright (c) 1991 - 2022 Synopsys, Inc.
   This software and the associated documentation are proprietary to Synopsys,
 Inc. This software may only be used in accordance with the terms and conditions
 of a written license agreement with Synopsys, Inc. All other use, reproduction,
   or distribution of this software is strictly prohibited.  Licensed Products
     communicate with Synopsys servers for the purpose of providing software
    updates, detecting software piracy and verifying that customers are using
    Licensed Products in conformity with the applicable License Key for such
  Licensed Products. Synopsys will use information gathered in connection with
    this process to deliver software updates and pursue software pirates and
                                   infringers.

 Inclusivity & Diversity - Visit SolvNetPlus to read the "Synopsys Statement on
            Inclusivity and Diversity" (Refer to article 000036315 at
                        https://solvnetplus.synopsys.com)

Parsing design file 'TuringMachine_test.sv'
Parsing design file 'TuringMachine.sv'

Warning-[IPDW] Identifier previously declared
TuringMachine.sv, 42
  Second declaration for identifier 'next_state_out' ignored
  Identifier 'next_state_out' previously declared as output port. 
  [TuringMachine.sv, 30]


Warning-[IPDW] Identifier previously declared
TuringMachine.sv, 46
  Second declaration for identifier 'tape_reg_out' ignored
  Identifier 'tape_reg_out' previously declared as output port. 
  [TuringMachine.sv, 29]


Warning-[IPDW] Identifier previously declared
TuringMachine.sv, 46
  Second declaration for identifier 'data_reg_out' ignored
  Identifier 'data_reg_out' previously declared as output port. 
  [TuringMachine.sv, 29]


Warning-[IPDW] Identifier previously declared
TuringMachine.sv, 46
  Second declaration for identifier 'display_in' ignored
  Identifier 'display_in' previously declared as output port. 
  [TuringMachine.sv, 29]


Warning-[IPDW] Identifier previously declared
TuringMachine.sv, 101
  Second declaration for identifier 'currState' ignored
  Identifier 'currState' previously declared as output port. 
  [TuringMachine.sv, 99]

Parsing design file 'library.sv'
Top Level Modules:
       TuringMachine_test
       MagComp
       Adder
       Multiplexer
       Decoder
       DFlipFlop
       Synchronizer
       ShiftRegister_PIPO
       ShiftRegister_SIPO
       BarrelShiftRegister
       BusDriver
       Memory
No TimeScale specified

Warning-[PCWM-W] Port connection width mismatch
TuringMachine.sv, 49
"Mux2to1 #(dw) mux_input_calculate( .I0 (data_reg_out),  .I1 (input_data),  .S (ReadInput),  .Y (write_data));"
  The following 1-bit expression is connected to 4-bit port "I0" of module 
  "Mux2to1", instance "mux_input_calculate".
  Expression: data_reg_out
  Instantiated module defined at: "library.sv", 61
  Use +lint=PCWM for more details.


Warning-[PCWM-W] Port connection width mismatch
TuringMachine.sv, 56
"Mux2to1 #(aw) mux_next_state( .I0 (next_state_prep),  .I1 (1'b1),  .S (Init),  .Y (next_state_in));"
  The following 1-bit expression is connected to 6-bit port "I1" of module 
  "Mux2to1", instance "mux_next_state".
  Expression: 1'b1
  Instantiated module defined at: "library.sv", 61
  Use +lint=PCWM for more details.


Warning-[PCWM-W] Port connection width mismatch
TuringMachine.sv, 67
"Demux1to4 #(dw) demux( .I (read_data),  .S (Data_sel),  .Y0 (data_reg_in),  .Y1 (direction_in),  .Y2 (next_state_prep),  .Y3 (tape_in));"
  The following 1-bit expression is connected to 4-bit port "Y0" of module 
  "Demux1to4", instance "demux".
  Expression: data_reg_in
  Instantiated module defined at: "library.sv", 42
  Use +lint=PCWM for more details.


Warning-[PCWM-W] Port connection width mismatch
TuringMachine.sv, 67
"Demux1to4 #(dw) demux( .I (read_data),  .S (Data_sel),  .Y0 (data_reg_in),  .Y1 (direction_in),  .Y2 (next_state_prep),  .Y3 (tape_in));"
  The following 2-bit expression is connected to 4-bit port "Y1" of module 
  "Demux1to4", instance "demux".
  Expression: direction_in
  Instantiated module defined at: "library.sv", 42
  Use +lint=PCWM for more details.


Warning-[PCWM-W] Port connection width mismatch
TuringMachine.sv, 67
"Demux1to4 #(dw) demux( .I (read_data),  .S (Data_sel),  .Y0 (data_reg_in),  .Y1 (direction_in),  .Y2 (next_state_prep),  .Y3 (tape_in));"
  The following 6-bit expression is connected to 4-bit port "Y2" of module 
  "Demux1to4", instance "demux".
  Expression: next_state_prep
  Instantiated module defined at: "library.sv", 42
  Use +lint=PCWM for more details.


Warning-[PCWM-W] Port connection width mismatch
TuringMachine.sv, 67
"Demux1to4 #(dw) demux( .I (read_data),  .S (Data_sel),  .Y0 (data_reg_in),  .Y1 (direction_in),  .Y2 (next_state_prep),  .Y3 (tape_in));"
  The following 1-bit expression is connected to 4-bit port "Y3" of module 
  "Demux1to4", instance "demux".
  Expression: tape_in
  Instantiated module defined at: "library.sv", 42
  Use +lint=PCWM for more details.


Warning-[PCWM-W] Port connection width mismatch
TuringMachine.sv, 75
"Mux2to1 #(aw) mux_display( .I0 (tape_reg_out),  .I1 (prev_tape_out),  .S (Left),  .Y (display_in));"
  The following 1-bit expression is connected to 6-bit port "I0" of module 
  "Mux2to1", instance "mux_display".
  Expression: tape_reg_out
  Instantiated module defined at: "library.sv", 61
  Use +lint=PCWM for more details.


Warning-[PCWM-W] Port connection width mismatch
TuringMachine.sv, 75
"Mux2to1 #(aw) mux_display( .I0 (tape_reg_out),  .I1 (prev_tape_out),  .S (Left),  .Y (display_in));"
  The following 1-bit expression is connected to 6-bit port "I1" of module 
  "Mux2to1", instance "mux_display".
  Expression: prev_tape_out
  Instantiated module defined at: "library.sv", 61
  Use +lint=PCWM for more details.


Warning-[PCWM-W] Port connection width mismatch
TuringMachine.sv, 75
"Mux2to1 #(aw) mux_display( .I0 (tape_reg_out),  .I1 (prev_tape_out),  .S (Left),  .Y (display_in));"
  The following 1-bit expression is connected to 6-bit port "Y" of module 
  "Mux2to1", instance "mux_display".
  Expression: display_in
  Instantiated module defined at: "library.sv", 61
  Use +lint=PCWM for more details.


Warning-[PCWM-W] Port connection width mismatch
TuringMachine.sv, 81
"Register #(aw) direction_reg( .en (Direction_en),  .clear (Init),  .D (direction_in),  .Q (direction_out),  .clock (clock));"
  The following 2-bit expression is connected to 6-bit port "D" of module 
  "Register", instance "direction_reg".
  Expression: direction_in
  Instantiated module defined at: "library.sv", 115
  Use +lint=PCWM for more details.


Warning-[PCWM-W] Port connection width mismatch
TuringMachine.sv, 81
"Register #(aw) direction_reg( .en (Direction_en),  .clear (Init),  .D (direction_in),  .Q (direction_out),  .clock (clock));"
  The following 2-bit expression is connected to 6-bit port "Q" of module 
  "Register", instance "direction_reg".
  Expression: direction_out
  Instantiated module defined at: "library.sv", 115
  Use +lint=PCWM for more details.


Warning-[ENUMASSIGN] Illegal assignment to enum variable
TuringMachine.sv, 115
FSM, "nextState = currState;"
  Only expressions of the enum type can be assigned to an enum variable. 
  The type logic [3:0] is incompatible with the declared enum
  Expression: currState
  Use the static cast operator to convert the expression to enum type.

Starting vcs inline pass...

12 modules and 0 UDP read.
	However, due to incremental compilation, no re-compilation is necessary.
rm -f _cuarc*.so _csrc*.so pre_vcsobj_*.so share_vcsobj_*.so
ld -shared  -Bsymbolic   -o .//../simv.daidir//_cuarc0.so objs/amcQw_d.o 
rm -f _cuarc0.so
if [ -x ../simv ]; then chmod a-x ../simv; fi
g++  -o ../simv      -rdynamic  -Wl,-rpath='$ORIGIN'/simv.daidir -Wl,-rpath=./simv.daidir -Wl,-rpath=/afs/ece.cmu.edu/support/synopsys/synopsys.release/T-Foundation/vcs/T-2022.06/linux64/lib -L/afs/ece.cmu.edu/support/synopsys/synopsys.release/T-Foundation/vcs/T-2022.06/linux64/lib  -Wl,-rpath-link=./     _178695_archive_1.so _prev_archive_1.so _cuarc0.so  SIM_l.o       rmapats_mop.o rmapats.o rmar.o rmar_nd.o  rmar_llvm_0_1.o rmar_llvm_0_0.o           -lnuma -lvirsim -lerrorinf -lsnpsmalloc -lvfs    -lvcsnew -lsimprofile -luclinative /afs/ece.cmu.edu/support/synopsys/synopsys.release/T-Foundation/vcs/T-2022.06/linux64/lib/vcs_tls.o   -Wl,-whole-archive  -lvcsucli    -Wl,-no-whole-archive          /afs/ece.cmu.edu/support/synopsys/synopsys.release/T-Foundation/vcs/T-2022.06/linux64/lib/vcs_save_restore_new.o -ldl  -lc -lm -lpthread -ldl 
../simv up to date
CPU time: .392 seconds to compile + .369 seconds to elab + .251 seconds to link
Finished rebuilding the design.
Chronologic VCS simulator copyright 1991-2022
Contains Synopsys proprietary information.
Compiler version T-2022.06_Full64; Runtime version T-2022.06_Full64;  May  3 18:58 2023
VCD+ Writer T-2022.06_Full64 Copyright (c) 1991-2022 by Synopsys Inc.
The file '/afs/andrew.cmu.edu/usr1/zhiyingm/private/18224/tiny-tapeout/TuringMachine/inter.vpd' was opened successfully.
                   0 input_data =  x, next = 0, done = 0, display = xxxxxxxxxxx, Compute_done = x

                   5 input_data =  3, next = 0, done = 0, display = 00000000000, Compute_done = x

                  35 input_data =  3, next = 1, done = 0, display = 00000000000, Compute_done = 1

                  55 input_data =  3, next = 1, done = 0, display = 00000000000, Compute_done = x

                  95 input_data =  3, next = 0, done = 0, display = 00000000000, Compute_done = x

                 115 input_data =  1, next = 0, done = 0, display = 00000000000, Compute_done = x

                 145 input_data =  1, next = 1, done = 0, display = 00000000000, Compute_done = 1

                 155 input_data =  1, next = 1, done = 0, display = 00000000000, Compute_done = x

                 165 input_data =  1, next = 0, done = 0, display = 00000000000, Compute_done = x

                 185 input_data =  0, next = 0, done = 0, display = 00000000000, Compute_done = x

                 215 input_data =  0, next = 1, done = 0, display = 00000000000, Compute_done = 1

                 225 input_data =  0, next = 1, done = 0, display = 00000000000, Compute_done = x

                 235 input_data =  0, next = 0, done = 0, display = 00000000000, Compute_done = x

                 255 input_data =  2, next = 0, done = 0, display = 00000000000, Compute_done = x

                 285 input_data =  2, next = 1, done = 0, display = 00000000000, Compute_done = 1

                 295 input_data =  2, next = 1, done = 0, display = 00000000000, Compute_done = x

                 305 input_data =  2, next = 0, done = 0, display = 00000000000, Compute_done = x

                 325 input_data =  1, next = 0, done = 0, display = 00000000000, Compute_done = x

                 355 input_data =  1, next = 1, done = 0, display = 00000000000, Compute_done = 1

                 365 input_data =  1, next = 1, done = 0, display = 00000000000, Compute_done = x

                 375 input_data =  1, next = 0, done = 0, display = 00000000000, Compute_done = x

                 395 input_data =  0, next = 0, done = 0, display = 00000000000, Compute_done = x

                 425 input_data =  0, next = 1, done = 0, display = 00000000000, Compute_done = 1

                 435 input_data =  0, next = 1, done = 0, display = 00000000000, Compute_done = x

                 445 input_data =  0, next = 0, done = 0, display = 00000000000, Compute_done = x

                 465 input_data =  1, next = 0, done = 0, display = 00000000000, Compute_done = x

                 495 input_data =  1, next = 1, done = 0, display = 00000000000, Compute_done = 1

                 505 input_data =  1, next = 1, done = 0, display = 00000000000, Compute_done = x

                 515 input_data =  1, next = 0, done = 0, display = 00000000000, Compute_done = x

                 535 input_data =  0, next = 0, done = 0, display = 00000000000, Compute_done = x

                 565 input_data =  0, next = 1, done = 0, display = 00000000000, Compute_done = 1

                 575 input_data =  0, next = 1, done = 0, display = 00000000000, Compute_done = x

                 585 input_data =  0, next = 0, done = 0, display = 00000000000, Compute_done = x

                 605 input_data =  1, next = 0, done = 0, display = 00000000000, Compute_done = x

                 635 input_data =  1, next = 1, done = 0, display = 00000000000, Compute_done = 1

                 645 input_data =  1, next = 1, done = 0, display = 00000000000, Compute_done = x

                 655 input_data =  1, next = 0, done = 0, display = 00000000000, Compute_done = x

                 675 input_data =  3, next = 0, done = 0, display = 00000000000, Compute_done = x

                 705 input_data =  3, next = 1, done = 0, display = 00000000000, Compute_done = 1

                 715 input_data =  3, next = 1, done = 0, display = 00000000000, Compute_done = x

                 725 input_data =  3, next = 0, done = 0, display = 00000000000, Compute_done = x

                 745 input_data =  1, next = 0, done = 0, display = 00000000000, Compute_done = x

                 775 input_data =  1, next = 1, done = 0, display = 00000000000, Compute_done = 1

                 785 input_data =  1, next = 1, done = 0, display = 00000000000, Compute_done = x

                 795 input_data =  1, next = 0, done = 0, display = 00000000000, Compute_done = x

                 815 input_data =  0, next = 0, done = 0, display = 00000000000, Compute_done = x

                 845 input_data =  0, next = 1, done = 0, display = 00000000000, Compute_done = 1

                 855 input_data =  0, next = 1, done = 0, display = 00000000000, Compute_done = x

                 865 input_data =  0, next = 0, done = 0, display = 00000000000, Compute_done = x

                 885 input_data =  2, next = 0, done = 0, display = 00000000000, Compute_done = x

                 915 input_data =  2, next = 1, done = 0, display = 00000000000, Compute_done = 1

                 925 input_data =  2, next = 1, done = 0, display = 00000000000, Compute_done = x

                 935 input_data =  2, next = 0, done = 0, display = 00000000000, Compute_done = x

                 955 input_data =  0, next = 0, done = 0, display = 00000000000, Compute_done = x

                 985 input_data =  0, next = 1, done = 0, display = 00000000000, Compute_done = 1

                 995 input_data =  0, next = 1, done = 0, display = 00000000000, Compute_done = x

                1005 input_data =  0, next = 0, done = 0, display = 00000000000, Compute_done = x

                1025 input_data =  2, next = 0, done = 0, display = 00000000000, Compute_done = x

                1055 input_data =  2, next = 1, done = 0, display = 00000000000, Compute_done = 1

                1065 input_data =  2, next = 1, done = 0, display = 00000000000, Compute_done = x

                1075 input_data =  2, next = 0, done = 0, display = 00000000000, Compute_done = x

                1095 input_data =  3, next = 0, done = 0, display = 00000000000, Compute_done = x

                1125 input_data =  3, next = 1, done = 0, display = 00000000000, Compute_done = 1

                1135 input_data =  3, next = 1, done = 0, display = 00000000000, Compute_done = x

                1145 input_data =  3, next = 0, done = 0, display = 00000000000, Compute_done = x

                1165 input_data =  0, next = 0, done = 0, display = 00000000000, Compute_done = x

                1195 input_data =  0, next = 1, done = 0, display = 00000000000, Compute_done = 1

                1205 input_data =  0, next = 1, done = 0, display = 00000000000, Compute_done = x

                1215 input_data =  0, next = 0, done = 0, display = 00000000000, Compute_done = x

                1235 input_data =  2, next = 0, done = 0, display = 00000000000, Compute_done = x

                1265 input_data =  2, next = 1, done = 0, display = 00000000000, Compute_done = 1

                1275 input_data =  2, next = 1, done = 0, display = 00000000000, Compute_done = x

                1285 input_data =  2, next = 0, done = 0, display = 00000000000, Compute_done = x

                1305 input_data =  3, next = 0, done = 0, display = 00000000000, Compute_done = x

                1335 input_data =  3, next = 1, done = 0, display = 00000000000, Compute_done = 1

                1345 input_data =  3, next = 1, done = 0, display = 00000000000, Compute_done = x

                1355 input_data =  3, next = 0, done = 0, display = 00000000000, Compute_done = x

                1375 input_data =  1, next = 0, done = 0, display = 00000000000, Compute_done = x

                1405 input_data =  1, next = 1, done = 0, display = 00000000000, Compute_done = 1

                1415 input_data =  1, next = 1, done = 0, display = 00000000000, Compute_done = x

                1425 input_data =  1, next = 0, done = 0, display = 00000000000, Compute_done = x

                1475 input_data =  1, next = 1, done = 0, display = 00000000000, Compute_done = 1

                1485 input_data =  1, next = 1, done = 0, display = 00000000000, Compute_done = x

                1495 input_data =  1, next = 0, done = 0, display = 00000000000, Compute_done = x

                1545 input_data =  1, next = 1, done = 0, display = 00000000000, Compute_done = 1

                1555 input_data =  1, next = 1, done = 0, display = 00000000000, Compute_done = x

                1565 input_data =  1, next = 0, done = 0, display = 00000000000, Compute_done = x

                1615 input_data =  1, next = 1, done = 0, display = 00000000000, Compute_done = 1

                1625 input_data =  1, next = 1, done = 0, display = 00000000000, Compute_done = x

                1635 input_data =  1, next = 0, done = 0, display = 00000000000, Compute_done = x

                1685 input_data =  1, next = 1, done = 0, display = 00000000000, Compute_done = 1

                1695 input_data =  1, next = 1, done = 0, display = 00000000000, Compute_done = x

                1705 input_data =  1, next = 0, done = 0, display = 00000000000, Compute_done = x

                1755 input_data =  1, next = 1, done = 0, display = 00000000000, Compute_done = 1

                1765 input_data =  1, next = 1, done = 0, display = 00000000000, Compute_done = x

                1775 input_data =  1, next = 0, done = 0, display = 00000000000, Compute_done = x

                1825 input_data =  1, next = 1, done = 0, display = 00000000000, Compute_done = 1

                1835 input_data =  1, next = 1, done = 0, display = 00000000000, Compute_done = x

                1845 input_data =  1, next = 0, done = 0, display = 00000000000, Compute_done = x

                1895 input_data =  1, next = 1, done = 0, display = 00000000000, Compute_done = 1

                1905 input_data =  1, next = 1, done = 0, display = 00000000000, Compute_done = x

                1915 input_data =  1, next = 0, done = 0, display = 00000000000, Compute_done = x

                1965 input_data =  1, next = 1, done = 0, display = 00000000000, Compute_done = 1

                1975 input_data =  1, next = 1, done = 0, display = 00000000000, Compute_done = x

                1985 input_data =  1, next = 0, done = 0, display = 00000000000, Compute_done = x

                2005 input_data =  1, next = 0, done = 1, display = 00000000000, Compute_done = 1

                2025 input_data =  1, next = 0, done = 0, display = 00000000001, Compute_done = 1

error

                2065 input_data =  1, next = 1, done = 0, display = 00000000001, Compute_done = 1

                2085 input_data =  1, next = 0, done = 0, display = 00000000001, Compute_done = 1

error

                2135 input_data =  1, next = 1, done = 0, display = 00000000001, Compute_done = 1

                2155 input_data =  1, next = 0, done = 0, display = 00000000001, Compute_done = 1

error

                2205 input_data =  1, next = 1, done = 0, display = 00000000001, Compute_done = 1

                2225 input_data =  1, next = 0, done = 0, display = 00000000001, Compute_done = 1

error

                2275 input_data =  1, next = 1, done = 0, display = 00000000001, Compute_done = 1

                2295 input_data =  1, next = 0, done = 0, display = 00000000001, Compute_done = 1

error

                2345 input_data =  1, next = 1, done = 0, display = 00000000001, Compute_done = 1

error

                2365 input_data =  1, next = 0, done = 0, display = 00000000001, Compute_done = 1

error

                2415 input_data =  1, next = 1, done = 0, display = 00000000001, Compute_done = 1

                2435 input_data =  1, next = 0, done = 0, display = 00000000001, Compute_done = 1

error

                2485 input_data =  1, next = 1, done = 0, display = 00000000001, Compute_done = 1

                2505 input_data =  1, next = 0, done = 0, display = 00000000001, Compute_done = 1

error

                2555 input_data =  1, next = 1, done = 0, display = 00000000001, Compute_done = 1

                2575 input_data =  1, next = 0, done = 0, display = 00000000001, Compute_done = 1

error

                2625 input_data =  1, next = 1, done = 0, display = 00000000001, Compute_done = 1

                2645 input_data =  1, next = 0, done = 0, display = 00000000001, Compute_done = 1

error

                2695 input_data =  1, next = 1, done = 0, display = 00000000001, Compute_done = 1

error

                2715 input_data =  1, next = 0, done = 0, display = 00000000001, Compute_done = 1

error

                2765 input_data =  1, next = 1, done = 0, display = 00000000001, Compute_done = 1

                2785 input_data =  1, next = 0, done = 0, display = 00000000001, Compute_done = 1

error

