TuringMachine/DVEfiles/dve_gui.log
Chronologic VCS simulator copyright 1991-2022
Contains Synopsys proprietary information.
Compiler version T-2022.06_Full64; Runtime version T-2022.06_Full64;  May  3 20:47 2023
VCD+ Writer T-2022.06_Full64 Copyright (c) 1991-2022 by Synopsys Inc.
The file '/afs/andrew.cmu.edu/usr1/zhiyingm/private/18224/tiny-tapeout/TuringMachine/inter.vpd' was opened successfully.
                   0 input_data =  x, next = 0, done = 0, display = xxxxxxxxxxx, Compute_done = x

                   5 input_data =  3, next = 0, done = 0, display = 00000000000, Compute_done = x

                  15 input_data =  3, next = 0, done = 0, display = 00000000000, Compute_done = 1

                  35 input_data =  3, next = 1, done = 0, display = 00000000000, Compute_done = 1

                  95 input_data =  3, next = 0, done = 0, display = 00000000000, Compute_done = 1

                 115 input_data =  1, next = 0, done = 0, display = 00000000000, Compute_done = 1

                 145 input_data =  1, next = 1, done = 0, display = 00000000000, Compute_done = 1

                 165 input_data =  1, next = 0, done = 0, display = 00000000000, Compute_done = 1

                 185 input_data =  0, next = 0, done = 0, display = 00000000000, Compute_done = 1

                 215 input_data =  0, next = 1, done = 0, display = 00000000000, Compute_done = 1

                 235 input_data =  0, next = 0, done = 0, display = 00000000000, Compute_done = 1

                 255 input_data =  2, next = 0, done = 0, display = 00000000000, Compute_done = 1

                 285 input_data =  2, next = 1, done = 0, display = 00000000000, Compute_done = 1

                 305 input_data =  2, next = 0, done = 0, display = 00000000000, Compute_done = 1

                 325 input_data =  0, next = 0, done = 0, display = 00000000000, Compute_done = 1

                 355 input_data =  0, next = 1, done = 0, display = 00000000000, Compute_done = 1

                 375 input_data =  0, next = 0, done = 0, display = 00000000000, Compute_done = 1

                 395 input_data =  1, next = 0, done = 0, display = 00000000000, Compute_done = 1

                 425 input_data =  1, next = 1, done = 0, display = 00000000000, Compute_done = 1

                 445 input_data =  1, next = 0, done = 0, display = 00000000000, Compute_done = 1

                 495 input_data =  1, next = 1, done = 0, display = 00000000000, Compute_done = 1

                 515 input_data =  1, next = 0, done = 0, display = 00000000000, Compute_done = 1

                 535 input_data =  0, next = 0, done = 0, display = 00000000000, Compute_done = 1

                 565 input_data =  0, next = 1, done = 0, display = 00000000000, Compute_done = 1

                 585 input_data =  0, next = 0, done = 0, display = 00000000000, Compute_done = 1

                 605 input_data =  1, next = 0, done = 0, display = 00000000000, Compute_done = 1

                 635 input_data =  1, next = 1, done = 0, display = 00000000000, Compute_done = 1

                 655 input_data =  1, next = 0, done = 0, display = 00000000000, Compute_done = 1

                 705 input_data =  1, next = 1, done = 0, display = 00000000000, Compute_done = 1

                 725 input_data =  1, next = 0, done = 0, display = 00000000000, Compute_done = 1

                 775 input_data =  1, next = 1, done = 0, display = 00000000000, Compute_done = 1

                 795 input_data =  1, next = 0, done = 0, display = 00000000000, Compute_done = 1

                 845 input_data =  1, next = 1, done = 0, display = 00000000000, Compute_done = 1

                 865 input_data =  1, next = 0, done = 0, display = 00000000000, Compute_done = 1

                 915 input_data =  1, next = 1, done = 0, display = 00000000000, Compute_done = 1

                 935 input_data =  1, next = 0, done = 0, display = 00000000000, Compute_done = 1

                 955 input_data =  0, next = 0, done = 0, display = 00000000000, Compute_done = 1

                 985 input_data =  0, next = 1, done = 0, display = 00000000000, Compute_done = 1

                1005 input_data =  0, next = 0, done = 0, display = 00000000000, Compute_done = 1

                1025 input_data =  2, next = 0, done = 0, display = 00000000000, Compute_done = 1

                1055 input_data =  2, next = 1, done = 0, display = 00000000000, Compute_done = 1

                1075 input_data =  2, next = 0, done = 0, display = 00000000000, Compute_done = 1

                1095 input_data =  3, next = 0, done = 0, display = 00000000000, Compute_done = 1

                1125 input_data =  3, next = 1, done = 0, display = 00000000000, Compute_done = 1

                1145 input_data =  3, next = 0, done = 0, display = 00000000000, Compute_done = 1

                1165 input_data =  0, next = 0, done = 0, display = 00000000000, Compute_done = 1

                1195 input_data =  0, next = 1, done = 0, display = 00000000000, Compute_done = 1

                1215 input_data =  0, next = 0, done = 0, display = 00000000000, Compute_done = 1

                1235 input_data =  2, next = 0, done = 0, display = 00000000000, Compute_done = 1

                1265 input_data =  2, next = 1, done = 0, display = 00000000000, Compute_done = 1

                1285 input_data =  2, next = 0, done = 0, display = 00000000000, Compute_done = 1

                1305 input_data =  3, next = 0, done = 0, display = 00000000000, Compute_done = 1

                1335 input_data =  3, next = 1, done = 0, display = 00000000000, Compute_done = 1

                1355 input_data =  3, next = 0, done = 0, display = 00000000000, Compute_done = 1

                1375 input_data =  0, next = 0, done = 0, display = 00000000000, Compute_done = 1

                1405 input_data =  0, next = 1, done = 0, display = 00000000000, Compute_done = 1

                1415 input_data =  0, next = 1, done = 0, display = 00000000000, Compute_done = 0

                1425 input_data =  0, next = 0, done = 0, display = 00000000000, Compute_done = 0

                1475 input_data =  0, next = 1, done = 0, display = 00000000000, Compute_done = 0

                1495 input_data =  0, next = 0, done = 0, display = 00000000000, Compute_done = 0

                1545 input_data =  0, next = 1, done = 0, display = 00000000000, Compute_done = 0

                1565 input_data =  0, next = 0, done = 0, display = 00000000000, Compute_done = 0

                1615 input_data =  0, next = 1, done = 0, display = 00000000000, Compute_done = 0

                1635 input_data =  0, next = 0, done = 0, display = 00000000000, Compute_done = 0

                1685 input_data =  0, next = 1, done = 0, display = 00000000000, Compute_done = 0

                1705 input_data =  0, next = 0, done = 0, display = 00000000000, Compute_done = 0

                1755 input_data =  0, next = 1, done = 0, display = 00000000000, Compute_done = 0

                1775 input_data =  0, next = 0, done = 0, display = 00000000000, Compute_done = 0

                1825 input_data =  0, next = 1, done = 0, display = 00000000000, Compute_done = 0

                1845 input_data =  0, next = 0, done = 0, display = 00000000000, Compute_done = 0

                1895 input_data =  0, next = 1, done = 0, display = 00000000000, Compute_done = 0

                1915 input_data =  0, next = 0, done = 0, display = 00000000000, Compute_done = 0

                1935 input_data =  1, next = 0, done = 0, display = 00000000000, Compute_done = 0

                1965 input_data =  1, next = 1, done = 0, display = 00000000000, Compute_done = 0

                1985 input_data =  1, next = 0, done = 0, display = 00000000000, Compute_done = 0

                2005 input_data =  1, next = 0, done = 1, display = 00000000000, Compute_done = 0

                2025 input_data =  1, next = 0, done = 0, display = 00000000000, Compute_done = 0

                2065 input_data =  1, next = 1, done = 0, display = 00000000000, Compute_done = 0

                2075 input_data =  1, next = 1, done = 0, display = 00000000001, Compute_done = 0

                2085 input_data =  1, next = 0, done = 0, display = 00000000001, Compute_done = 0

                2115 input_data =  1, next = 0, done = 0, display = 00000000010, Compute_done = 0

                2135 input_data =  1, next = 1, done = 0, display = 00000000010, Compute_done = 0

                2155 input_data =  1, next = 0, done = 0, display = 00000000010, Compute_done = 0

                2185 input_data =  1, next = 0, done = 0, display = 00000000001, Compute_done = 0

                2205 input_data =  1, next = 1, done = 0, display = 00000000001, Compute_done = 0

                2215 input_data =  1, next = 1, done = 0, display = 00000000000, Compute_done = 0

                2225 input_data =  1, next = 0, done = 0, display = 00000000000, Compute_done = 0

                2235 input_data =  1, next = 0, done = 0, display = 00000000000, Compute_done = 1

                2275 input_data =  1, next = 1, done = 0, display = 00000000000, Compute_done = 1

                2295 input_data =  1, next = 0, done = 0, display = 00000000000, Compute_done = 1

                2345 input_data =  1, next = 1, done = 0, display = 00000000000, Compute_done = 1

                2365 input_data =  1, next = 0, done = 0, display = 00000000000, Compute_done = 1

                2415 input_data =  1, next = 1, done = 0, display = 00000000000, Compute_done = 1

                2435 input_data =  1, next = 0, done = 0, display = 00000000000, Compute_done = 1

                2485 input_data =  1, next = 1, done = 0, display = 00000000000, Compute_done = 1

                2505 input_data =  1, next = 0, done = 0, display = 00000000000, Compute_done = 1

                2555 input_data =  1, next = 1, done = 0, display = 00000000000, Compute_done = 1

                2575 input_data =  1, next = 0, done = 0, display = 00000000000, Compute_done = 1

                2625 input_data =  1, next = 1, done = 0, display = 00000000000, Compute_done = 1

                2645 input_data =  1, next = 0, done = 0, display = 00000000000, Compute_done = 1

                2695 input_data =  1, next = 1, done = 0, display = 00000000000, Compute_done = 1

                2715 input_data =  1, next = 0, done = 0, display = 00000000000, Compute_done = 1

                2765 input_data =  1, next = 1, done = 0, display = 00000000000, Compute_done = 1

                2785 input_data =  1, next = 0, done = 0, display = 00000000000, Compute_done = 1

                2835 input_data =  1, next = 1, done = 0, display = 00000000000, Compute_done = 1

                2855 input_data =  1, next = 0, done = 0, display = 00000000000, Compute_done = 1

                2905 input_data =  1, next = 1, done = 0, display = 00000000000, Compute_done = 1

                2925 input_data =  1, next = 0, done = 0, display = 00000000000, Compute_done = 1

$finish called from file "TuringMachine_test1.sv", line 463.
$finish at simulation time                 2976
Simulation complete, time is 2976.
           V C S   S i m u l a t i o n   R e p o r t 
Time: 2976
CPU Time:      0.380 seconds;       Data structure size:   0.0Mb
Wed May  3 20:48:58 2023
                                                                                                                                                                                                                                                                                                                                                                                                                                                                                                                                                                                                                                                                                                                                                                                                                                                                                                                                                                                                                                                                                                                                                                                                                                                                                                                                                                                                                                                                                                                                                                                                                                                                                                                                                                                                                                                                                                                                                                                                                                                                                                                                                                                                                                                                                                                                                                                                                                                                                                                                                                                                                                                                                                                                                                                                                                                                                                                                                                                                                                                                                                                                                                                                                                                                                                                                                                                                                                                                                                                                                                                                                                                                                                                                                                                                                                                                                                                                                                                                                                                                                                                                                                                                                                                                                                                                                                                                                                                                                                                                                                                                                                                                                                                                                                                                                                                                                                                                                                                                                                                                                                                                                                                                                                                                                                                                                                                                                                                                                                                                                                                                                                                                                                                                                                                                                                                                                                                                                                                                                                                                                                                                                                                                                                                                                                                                                                                                                                                                                                                                                                                                                                                                                                                                                                                                                                                                                                                                                                                                                                                                                                                                                                                                                                                                                                                                                                                                                                                                                                                                                                                                                                                                                                                                                                                                                                                                                                                                                                                                                                                                                                                                                                                                                                                                                                                                                                                                                                                                                                                                                                                                                                                                                                                                                                                                                                                                                                                                                                                                                                                                                                                                                                                                                                                                                                                                                                                                                                                                                                                                                                                                                                                                                                                                                                                                                                                                                                                                                                                                                                                                                                                                                                                                                                                                                                                                                                                                                                                                                                                                                                                                                                                                                                                                                                                                                                                                                                                                                                                                                                                                                                                                                                                                                                                                                                                                                                                                                                                                                                                                                                                                                                                                                                                                                                                                                                                                                                                                                                                                                                                                                                                                                                                                                                                                                                                                                                                                                                                                                                                                                                                                                                                                                                                                                                                                                                                                                                                                                                                                                                                                                                                                                                                                                                                                                                                                                                                                                                                                                                                                                                                                                                                                                                                                                                                                                                                                                                                                                                                                                                                                                                                                                                                                                                                                                                                                                                                                                                                                                                                                                                                                                                                                                                                                                                                                                                                                                                                                                                                                                                                                                                                                                                                                                                                                                                                                                                                                                                                                                                                                                                                                                                                                                                                                                                                                                                                                                                                                                                                                                                                                                                                                                                                                                                                                                                                                                                                                                                                                                                                                                                                                                                                                                                                                                                                                                                                                                                                                                                                                                                                                                                                                                                                                                                                                                                                                                                                                                                                                                                                                                                                                                                                                                                                                                                                                                                                                                                                                                                                                                                                                                                                                                                                                                                                                                                                                                                                                                                                                                                                                                                                                                                                                                                                                                                                                                                                                                                                                                                                                                                                                                                                                                                                                                                                                                                                                                                                                                                                                                                                                                                                                                                                                                                                                                                                                                                                                                                                                                                                                                                                                                                                                                                                                                                                                                                                                                                                                                                                                                                                                                                                                                                                                                                                                                                                                                                                                                                                                                                                                                                                                                                                                                                                                                                                                                                                                                                                                                                                                                                                                                                                                                                                                                                                                                                                                                                                                                                                                                                                                                                                                                                                                                                                                                                                                                                                                                                                                                                                                                                                                                                                                                                                                                                                                                                                                                                                                                                                                                                                                                                                                                                                                                                                                                                                                                                                                                                                                                                                                                                                                                                                                                                                                                                                                                                                                                                                                                                                                                                                                                                                                                                                                                                                                                                                                                                                                                                                                                                                                                                                                                                                                                                                                                                                                                                                                                                                                                                                                                                                                                                                                                                                                                                                                                                                                                                                                                                                                                                                                                                                                                                                                                                                                                                                                                                                                                                                                                                                                                                                                                                                                                                                                                                                                                                                                                                                                                                                                                                                                                                                                                                                                                                                                                                                                                                                                                                                                                                                                                                                                                                                                                                                                                                                                                                                                                                                                                                                                                                                                                                                                                                                                                                                                                                                                                                                                                                                                                                                                                                                                                                                                                                                                                                                                                                                                                                                                                                                                                                                                                                                                                                                                                                                                                                                                                                                                                                                                                                                                                                                                                                                                                                                                                                                                                                                                                                                                                                                                                                                                                                                                                                                                                                                                                                                                                                                                                                                                                                                                                                                                                                                                                                                                                                                                                                                                                                                                                                                                                                                                                                                                                                                                                                                                                                                                                                                                                                                                                                                                                                                                                                                                                                                                                                                                                                                                                                                                                                                                                                                                                                                                                                                                                                                                                                                                                                                                                                                                                                                                                                                                                                                                                                                                                                                                                                                                                                                                                                                                                                                                                                                                                                                                                                                                                                                                                                                                                                                                                                                                                                                                                                                                                                                                                                                                                                                                                                                                                                                                                                                                                                                                                                                                                                                                                                                                                                                                                                                                                                                                                                                                                                                                                                                                                                                                                                                                                                                                                                                                                                                                                                                                                                                                                                                                                                                                                                                                                                                                                                                                                                                                                                                                                                                                                                                                                                                                                                                                                                                                                                                                                                                                                                                                                                                                                                                                                                                                                                                                                                                                                                                                                                                                                                                                                                                                                                                                                                                                                                                                                                                                                                                                                                                                                                                                                                                                                                                                                                                                                                                                                                                                                                                                                                                                                                                                                                                                                                                                                                                                                                                                                                                                                                                                                                                                                                                                                                                                                                                                                                                                                                                                                                                                                                                                                                                                                                                                                                                                                                                                                                                                                                                                                                                                                                                                                                                                                                                                                                                                                                                                                                                                                                                                                                                                                                                                                                                                                                                                                                                                                                                                                                                                                                                                                                                                                                                                                                                                                                                                                                                                                                                                                                                                                                                                                                                                                                                                                                                                                                                                                                                                                                                                                                                                                                                                                                                                                                                                                                                                                                                                                                                                                                                                                                                                                                                                                                                                                                                                                                                                                                                                                                                                                                                                                                                                                                                                                                                                                                                                                                                                                                                                                                                                                                                                                                                                                                                                                                                                                                                                                                                                                                                                                                                                                                                                                                                                                                                                                                                                                                                                                                                                                                                                                                                                                                                                                                                                                                                                                                                                                                                                                                                                                                                                                                                                                                                                                                                                                                                                                                                                                                                                                                                                                                                                                                                                                                                                                                                                                                                                                                                                                                                                                                                                                                                                                                                                                                                                                                                                                                                                                                                                                                                                                                                                                                                                                                                                                                                                                                                                                                                                                                                                                                                                                                                                                                                                                                                                                                                                                                                                                                                                                                                                                                                                                                                                                                                                                                                                                                                                                                                                                                                                                                                                                                                                                                                                                                                                                                                                                                                                                                                                                                                                                                                                                                                                                                                                                                                                                                                                                                                                                                                                                                                                                                                                                                                                                                                                                                                                                                                                                                                                                                                                                                                                                                                                                                                                                                                                                                                                                                                                                                                                                                                                                                                                                                                                                                                                                                                                                                                                                                                                                                                                                                                                                                                                                                                                                                                                                                                                                                                                                                                                                                                                                                                                                                                                                                                                                                                                                                                                                                                                                                                                                                                                                                                                                                                                                                                                                                                                                                                                                                                                                                                                                                                                                                                                                                                                                                                                                                                                                                                                                                                                                                                                                                                                                                                                                                                                                                                                                                                                                                                                                                                                                                                                                                                                                                                                                                                                                                                                                                                                                                                                                                                                                                                                                                                                                                                                                                                                                                                                                                                                                                                                                                                                                                                                                                                                                                                                                                                                                                                                                                                                                                                                                                                                                                                                                                                                                                                                                                                                                                                                                                                                                                                                                                                                                                                                                                                                                                                                                                                                                                                                                                                                                                                                                                                                                                                                                                                                                                                                                                                                                                                                                                                                                                                                                                                                                                                                                                                                                                                                                                                                                                                                                                                                                                                                                                                                                                                                                                                                                                                                                                                                                                                                                                                                                                                                                                                                                                                                                                                                                                                                                                                                                                                                                                                                                                                                                                                                                                                                                                                                                                                                                                                                                                                                                                                                                                                                                                                                                                                                                                                                                                                                                                                                                                                                                                                                                                                                                                                                                                                                                                                                                                                                                                                                                                                                                                                                                                                                                                                                                                                                                                                                                                                                                                                                                                                                                                                                                                                                                                                                                                                                                                                                                                                                                                                                                                                                                                                                                                                                                                                                                                                                                                                                                                                                                                                                                                                                                                                                                                                                                                                                                                                                                                                                                                                                                                                                                                                                                                                                                                                                                                                                                                                                                                                                                                                                                                                                                                                                                                                                                                                                                                                                                                                                                                                                                                                                                                                                                                                                                                                                                                                                                                                                                                                                                                                                                                                                                                                                                                                                                                                                                                                                                                                                                                                                                                                                                                                                                                                                                                                                                                                                                                                                                                                                                                                                                                                                                                                                                                                                                                                                                                                                                                                                                                                                                                                                                                                                                                                                                                                                                                                                                                                                                                                                                                                                                                                                                                                                                                                                                                                                                                                                                                                                                                                                                                                                                                                                                                                                                                                                                                                                                                                                                                                                                                                                                                                                                                                                                                                                                                                                                                                                                                                                                                                                                                                                                                                                                                                                                                                                                                                                                                                                                                                                                                                                                                                                                                                                                                                                                                                                                                                                                                                                                                                                                                                                                                                                                                                                                                                                                                                                                                                                                                                                                                                                                                                                                                                                                                                                                                                                                                                                                                                                                                                                                                                                                                                                                                                                                                                                                                                                                                                                                                                                                                                                                                                                                                                                                                                                                                                                                                                                                                                                                                                                                                                                                                                                                                                                                                                                                                                                                                                                                                                                                                                                                                                                                                                                                                                                                                                                                                                                                                                                                                                                                                                                                                                                                                                                                                                                                                                                                                                                                                                                                                                                                                                                                                                                                                                                                                                                                                                                                                                                                                                                                                                                                                                                                                                                                                                                                                                                                                                                                                                                                                                                                                                                                                                                                                                                                                                                                                                                                                                                                                                                                                                                                                                                                                                                                                                                                                                                                                                                                                                                                                                                                                                                                                                                                                                                                                                                                                                                                                                                                                                                                                                                                                                                                                                                                                                                                                                                                                                                                                                                                                                                                                                                                                                                                                                                                                                                                                                                                                                                                                                                                                                                                                                                                                                                                                                                                                                                                                                                                                                                                                                                                                                                                                                                                                                                                                                                                                                                                                                                                                                                                                                                                                                                                                                                                                                                                                                                                                            V C S   S i m u l a t i o n   R e p o r t 
Time: 2976
CPU Time:      0.120 seconds;       Data structure size:   0.0Mb
Wed May  3 20:47:31 2023
